<svg width="380" height="261" viewBox="0 0 380 261" fill="none" xmlns="http://www.w3.org/2000/svg">
<circle cx="70.4498" cy="113.658" r="15.5669" fill="#0085FF"/>
<g style="mix-blend-mode:luminosity">
<circle cx="70.4378" cy="113.659" r="15.5669" transform="rotate(-77.7102 70.4378 113.659)" fill="#FFFD9D"/>
<mask id="mask0_532_2457" style="mask-type:alpha" maskUnits="userSpaceOnUse" x="54" y="98" width="33" height="32">
<circle cx="70.4378" cy="113.659" r="15.5669" transform="rotate(-77.7102 70.4378 113.659)" fill="#FFFD9D"/>
</mask>
<g mask="url(#mask0_532_2457)">
<circle cx="70.4378" cy="113.659" r="15.5669" transform="rotate(-77.7102 70.4378 113.659)" fill="#E4E4E4"/>
<circle opacity="0.5" cx="71.0499" cy="113.377" r="15.1622" transform="rotate(-77.7102 71.0499 113.377)" fill="url(#paint0_radial_532_2457)"/>
<circle opacity="0.5" cx="70.7677" cy="113.346" r="14.6952" transform="rotate(-77.7102 70.7677 113.346)" fill="url(#paint1_linear_532_2457)"/>
<circle cx="70.4465" cy="113.659" r="11.2082" transform="rotate(-77.7102 70.4465 113.659)" fill="#B8B8B8"/>
<circle cx="70.4465" cy="113.659" r="11.2082" transform="rotate(-77.7102 70.4465 113.659)" fill="url(#paint2_radial_532_2457)"/>
<g filter="url(#filter0_d_532_2457)">
<path d="M65.4905 109.764L64.31 115.183L69.3687 113.457L65.4905 109.764Z" fill="white"/>
<path d="M66.3149 114.947L65.332 119.459L77.5537 115.253L68.1988 106.299L67.2145 110.818L68.3923 111.939L68.7147 110.459L71.0455 113.821L67.5316 115.89L67.8513 114.423L66.3149 114.947Z" fill="white"/>
</g>
</g>
</g>
<circle cx="349.536" cy="212.523" r="15.5669" fill="#0085FF"/>
<g style="mix-blend-mode:luminosity">
<circle cx="349.524" cy="212.524" r="15.5669" transform="rotate(-77.7102 349.524 212.524)" fill="#FFFD9D"/>
<mask id="mask1_532_2457" style="mask-type:alpha" maskUnits="userSpaceOnUse" x="333" y="196" width="33" height="33">
<circle cx="349.524" cy="212.524" r="15.5669" transform="rotate(-77.7102 349.524 212.524)" fill="#FFFD9D"/>
</mask>
<g mask="url(#mask1_532_2457)">
<circle cx="349.524" cy="212.524" r="15.5669" transform="rotate(-77.7102 349.524 212.524)" fill="#E4E4E4"/>
<circle opacity="0.5" cx="350.136" cy="212.242" r="15.1622" transform="rotate(-77.7102 350.136 212.242)" fill="url(#paint3_radial_532_2457)"/>
<circle opacity="0.5" cx="349.854" cy="212.211" r="14.6952" transform="rotate(-77.7102 349.854 212.211)" fill="url(#paint4_linear_532_2457)"/>
<circle cx="349.532" cy="212.524" r="11.2082" transform="rotate(-77.7102 349.532 212.524)" fill="#B8B8B8"/>
<circle cx="349.532" cy="212.524" r="11.2082" transform="rotate(-77.7102 349.532 212.524)" fill="url(#paint5_radial_532_2457)"/>
<g filter="url(#filter1_d_532_2457)">
<path d="M344.576 208.629L343.396 214.048L348.455 212.322L344.576 208.629Z" fill="white"/>
<path d="M345.401 213.812L344.418 218.324L356.64 214.118L347.285 205.164L346.3 209.683L347.478 210.804L347.801 209.324L350.131 212.686L346.618 214.755L346.937 213.288L345.401 213.812Z" fill="white"/>
</g>
</g>
</g>
<circle cx="135.434" cy="18.1075" r="15.5669" transform="rotate(100.325 135.434 18.1075)" fill="#1400FF"/>
<g style="mix-blend-mode:luminosity">
<circle cx="135.434" cy="18.1075" r="15.5669" transform="rotate(100.325 135.434 18.1075)" fill="#FFFD9D"/>
<mask id="mask2_532_2457" style="mask-type:alpha" maskUnits="userSpaceOnUse" x="119" y="2" width="33" height="32">
<circle cx="135.434" cy="18.1075" r="15.5669" transform="rotate(100.325 135.434 18.1075)" fill="#FFFD9D"/>
</mask>
<g mask="url(#mask2_532_2457)">
<circle cx="135.434" cy="18.1075" r="15.5669" transform="rotate(100.325 135.434 18.1075)" fill="#E4E4E4"/>
<circle opacity="0.5" cx="134.85" cy="18.4118" r="15.1622" transform="rotate(100.325 134.85 18.4118)" fill="url(#paint6_radial_532_2457)"/>
<circle opacity="0.5" cx="135.12" cy="18.4291" r="14.6952" transform="rotate(100.325 135.12 18.4291)" fill="url(#paint7_linear_532_2457)"/>
<circle cx="135.425" cy="18.1067" r="11.2082" transform="rotate(100.325 135.425 18.1067)" fill="#B8B8B8"/>
<circle cx="135.425" cy="18.1067" r="11.2082" transform="rotate(100.325 135.425 18.1067)" fill="url(#paint8_radial_532_2457)"/>
<g filter="url(#filter2_d_532_2457)">
<path d="M140.501 21.833L141.495 16.3768L136.499 18.2755L140.501 21.833Z" fill="white"/>
<path d="M139.508 16.681L140.336 12.1382L128.266 16.7607L137.922 25.3884L138.751 20.8387L137.535 19.7583L137.264 21.2485L134.819 17.9685L138.26 15.7801L137.991 17.2576L139.508 16.681Z" fill="white"/>
</g>
</g>
</g>
<circle cx="205.106" cy="234.105" r="15.5669" transform="rotate(100.325 205.106 234.105)" fill="#1400FF"/>
<g style="mix-blend-mode:luminosity">
<circle cx="205.106" cy="234.105" r="15.5669" transform="rotate(100.325 205.106 234.105)" fill="#FFFD9D"/>
<mask id="mask3_532_2457" style="mask-type:alpha" maskUnits="userSpaceOnUse" x="189" y="218" width="32" height="32">
<circle cx="205.106" cy="234.105" r="15.5669" transform="rotate(100.325 205.106 234.105)" fill="#FFFD9D"/>
</mask>
<g mask="url(#mask3_532_2457)">
<circle cx="205.106" cy="234.105" r="15.5669" transform="rotate(100.325 205.106 234.105)" fill="#E4E4E4"/>
<circle opacity="0.5" cx="204.522" cy="234.409" r="15.1622" transform="rotate(100.325 204.522 234.409)" fill="url(#paint9_radial_532_2457)"/>
<circle opacity="0.5" cx="204.792" cy="234.427" r="14.6952" transform="rotate(100.325 204.792 234.427)" fill="url(#paint10_linear_532_2457)"/>
<circle cx="205.097" cy="234.104" r="11.2082" transform="rotate(100.325 205.097 234.104)" fill="#B8B8B8"/>
<circle cx="205.097" cy="234.104" r="11.2082" transform="rotate(100.325 205.097 234.104)" fill="url(#paint11_radial_532_2457)"/>
<g filter="url(#filter3_d_532_2457)">
<path d="M210.173 237.831L211.167 232.374L206.171 234.273L210.173 237.831Z" fill="white"/>
<path d="M209.18 232.679L210.008 228.136L197.938 232.758L207.594 241.386L208.423 236.836L207.207 235.756L206.936 237.246L204.491 233.966L207.932 231.778L207.663 233.255L209.18 232.679Z" fill="white"/>
</g>
</g>
</g>
<circle cx="234.106" cy="123.105" r="15.5669" transform="rotate(100.325 234.106 123.105)" fill="#1400FF"/>
<g style="mix-blend-mode:luminosity">
<circle cx="234.106" cy="123.105" r="15.5669" transform="rotate(100.325 234.106 123.105)" fill="#FFFD9D"/>
<mask id="mask4_532_2457" style="mask-type:alpha" maskUnits="userSpaceOnUse" x="218" y="107" width="32" height="32">
<circle cx="234.106" cy="123.105" r="15.5669" transform="rotate(100.325 234.106 123.105)" fill="#FFFD9D"/>
</mask>
<g mask="url(#mask4_532_2457)">
<circle cx="234.106" cy="123.105" r="15.5669" transform="rotate(100.325 234.106 123.105)" fill="#E4E4E4"/>
<circle opacity="0.5" cx="233.522" cy="123.409" r="15.1622" transform="rotate(100.325 233.522 123.409)" fill="url(#paint12_radial_532_2457)"/>
<circle opacity="0.5" cx="233.792" cy="123.427" r="14.6952" transform="rotate(100.325 233.792 123.427)" fill="url(#paint13_linear_532_2457)"/>
<circle cx="234.097" cy="123.104" r="11.2082" transform="rotate(100.325 234.097 123.104)" fill="#B8B8B8"/>
<circle cx="234.097" cy="123.104" r="11.2082" transform="rotate(100.325 234.097 123.104)" fill="url(#paint14_radial_532_2457)"/>
<g filter="url(#filter4_d_532_2457)">
<path d="M239.173 126.831L240.167 121.374L235.171 123.273L239.173 126.831Z" fill="white"/>
<path d="M238.18 121.679L239.008 117.136L226.938 121.758L236.594 130.386L237.423 125.836L236.207 124.756L235.936 126.246L233.491 122.966L236.932 120.778L236.663 122.255L238.18 121.679Z" fill="white"/>
</g>
</g>
</g>
<circle cx="119.841" cy="144.792" r="15.5669" transform="rotate(-14.3552 119.841 144.792)" fill="#BD00FF"/>
<g style="mix-blend-mode:luminosity">
<circle cx="119.841" cy="144.792" r="15.5669" transform="rotate(-14.3552 119.841 144.792)" fill="#FFFD9D"/>
<mask id="mask5_532_2457" style="mask-type:alpha" maskUnits="userSpaceOnUse" x="104" y="129" width="32" height="32">
<circle cx="119.841" cy="144.792" r="15.5669" transform="rotate(-14.3552 119.841 144.792)" fill="#FFFD9D"/>
</mask>
<g mask="url(#mask5_532_2457)">
<circle cx="119.841" cy="144.792" r="15.5669" transform="rotate(-14.3552 119.841 144.792)" fill="#E4E4E4"/>
<circle opacity="0.5" cx="120.364" cy="145.204" r="15.1622" transform="rotate(-14.3552 120.364 145.204)" fill="url(#paint15_radial_532_2457)"/>
<circle opacity="0.5" cx="120.265" cy="144.94" r="14.6952" transform="rotate(-14.3552 120.265 144.94)" fill="url(#paint16_linear_532_2457)"/>
<circle cx="119.83" cy="144.792" r="11.2082" transform="rotate(-14.3552 119.83 144.792)" fill="#B8B8B8"/>
<circle cx="119.83" cy="144.792" r="11.2082" transform="rotate(-14.3552 119.83 144.792)" fill="url(#paint17_radial_532_2457)"/>
<g filter="url(#filter5_d_532_2457)">
<path d="M121.094 138.619L115.721 139.994L119.533 143.741L121.094 138.619Z" fill="white"/>
<path d="M116.839 141.679L112.365 142.824L121.605 151.862L125.413 139.485L120.933 140.632L120.459 142.187L121.926 141.812L119.967 145.403L116.541 143.19L117.996 142.817L116.839 141.679Z" fill="white"/>
</g>
</g>
</g>
<circle cx="99.9405" cy="239.941" r="15.5669" transform="rotate(-14.3552 99.9405 239.941)" fill="#BD00FF"/>
<g style="mix-blend-mode:luminosity">
<circle cx="99.9405" cy="239.941" r="15.5669" transform="rotate(-14.3552 99.9405 239.941)" fill="#FFFD9D"/>
<mask id="mask6_532_2457" style="mask-type:alpha" maskUnits="userSpaceOnUse" x="84" y="224" width="32" height="32">
<circle cx="99.9405" cy="239.941" r="15.5669" transform="rotate(-14.3552 99.9405 239.941)" fill="#FFFD9D"/>
</mask>
<g mask="url(#mask6_532_2457)">
<circle cx="99.9405" cy="239.941" r="15.5669" transform="rotate(-14.3552 99.9405 239.941)" fill="#E4E4E4"/>
<circle opacity="0.5" cx="100.464" cy="240.352" r="15.1622" transform="rotate(-14.3552 100.464 240.352)" fill="url(#paint18_radial_532_2457)"/>
<circle opacity="0.5" cx="100.364" cy="240.089" r="14.6952" transform="rotate(-14.3552 100.364 240.089)" fill="url(#paint19_linear_532_2457)"/>
<circle cx="99.9301" cy="239.941" r="11.2082" transform="rotate(-14.3552 99.9301 239.941)" fill="#B8B8B8"/>
<circle cx="99.9301" cy="239.941" r="11.2082" transform="rotate(-14.3552 99.9301 239.941)" fill="url(#paint20_radial_532_2457)"/>
<g filter="url(#filter6_d_532_2457)">
<path d="M101.194 233.767L95.8209 235.142L99.6325 238.89L101.194 233.767Z" fill="white"/>
<path d="M96.9382 236.828L92.4648 237.973L101.705 247.01L105.513 234.633L101.032 235.78L100.558 237.336L102.026 236.96L100.066 240.551L96.6409 238.338L98.0958 237.966L96.9382 236.828Z" fill="white"/>
</g>
</g>
</g>
<circle cx="267.94" cy="18.9416" r="15.5669" transform="rotate(-14.3552 267.94 18.9416)" fill="#BD00FF"/>
<g style="mix-blend-mode:luminosity">
<circle cx="267.94" cy="18.9416" r="15.5669" transform="rotate(-14.3552 267.94 18.9416)" fill="#FFFD9D"/>
<mask id="mask7_532_2457" style="mask-type:alpha" maskUnits="userSpaceOnUse" x="252" y="3" width="32" height="32">
<circle cx="267.94" cy="18.9416" r="15.5669" transform="rotate(-14.3552 267.94 18.9416)" fill="#FFFD9D"/>
</mask>
<g mask="url(#mask7_532_2457)">
<circle cx="267.94" cy="18.9416" r="15.5669" transform="rotate(-14.3552 267.94 18.9416)" fill="#E4E4E4"/>
<circle opacity="0.5" cx="268.464" cy="19.3529" r="15.1622" transform="rotate(-14.3552 268.464 19.3529)" fill="url(#paint21_radial_532_2457)"/>
<circle opacity="0.5" cx="268.364" cy="19.0895" r="14.6952" transform="rotate(-14.3552 268.364 19.0895)" fill="url(#paint22_linear_532_2457)"/>
<circle cx="267.93" cy="18.9417" r="11.2082" transform="rotate(-14.3552 267.93 18.9417)" fill="#B8B8B8"/>
<circle cx="267.93" cy="18.9417" r="11.2082" transform="rotate(-14.3552 267.93 18.9417)" fill="url(#paint23_radial_532_2457)"/>
<g filter="url(#filter7_d_532_2457)">
<path d="M269.194 12.7683L263.821 14.1433L267.632 17.8906L269.194 12.7683Z" fill="white"/>
<path d="M264.938 15.8288L260.465 16.9736L269.705 26.0112L273.513 13.6344L269.032 14.781L268.558 16.3367L270.026 15.9611L268.066 19.552L264.641 17.3392L266.096 16.9669L264.938 15.8288Z" fill="white"/>
</g>
</g>
</g>
<circle cx="360.94" cy="118.941" r="15.5669" transform="rotate(-14.3552 360.94 118.941)" fill="#BD00FF"/>
<g style="mix-blend-mode:luminosity">
<circle cx="360.94" cy="118.941" r="15.5669" transform="rotate(-14.3552 360.94 118.941)" fill="#FFFD9D"/>
<mask id="mask8_532_2457" style="mask-type:alpha" maskUnits="userSpaceOnUse" x="345" y="103" width="32" height="32">
<circle cx="360.94" cy="118.941" r="15.5669" transform="rotate(-14.3552 360.94 118.941)" fill="#FFFD9D"/>
</mask>
<g mask="url(#mask8_532_2457)">
<circle cx="360.94" cy="118.941" r="15.5669" transform="rotate(-14.3552 360.94 118.941)" fill="#E4E4E4"/>
<circle opacity="0.5" cx="361.464" cy="119.352" r="15.1622" transform="rotate(-14.3552 361.464 119.352)" fill="url(#paint24_radial_532_2457)"/>
<circle opacity="0.5" cx="361.364" cy="119.089" r="14.6952" transform="rotate(-14.3552 361.364 119.089)" fill="url(#paint25_linear_532_2457)"/>
<circle cx="360.93" cy="118.941" r="11.2082" transform="rotate(-14.3552 360.93 118.941)" fill="#B8B8B8"/>
<circle cx="360.93" cy="118.941" r="11.2082" transform="rotate(-14.3552 360.93 118.941)" fill="url(#paint26_radial_532_2457)"/>
<g filter="url(#filter8_d_532_2457)">
<path d="M362.194 112.767L356.821 114.142L360.632 117.89L362.194 112.767Z" fill="white"/>
<path d="M357.938 115.828L353.465 116.973L362.705 126.01L366.513 113.633L362.032 114.78L361.558 116.336L363.026 115.96L361.066 119.551L357.641 117.338L359.096 116.966L357.938 115.828Z" fill="white"/>
</g>
</g>
</g>
<circle cx="174.069" cy="87.8921" r="15.5669" transform="rotate(-57.1012 174.069 87.8921)" fill="#BD54B3"/>
<g style="mix-blend-mode:luminosity">
<circle cx="174.069" cy="87.8921" r="15.5669" transform="rotate(-57.1012 174.069 87.8921)" fill="#FFFD9D"/>
<mask id="mask9_532_2457" style="mask-type:alpha" maskUnits="userSpaceOnUse" x="158" y="72" width="32" height="32">
<circle cx="174.069" cy="87.8921" r="15.5669" transform="rotate(-57.1012 174.069 87.8921)" fill="#FFFD9D"/>
</mask>
<g mask="url(#mask9_532_2457)">
<circle cx="174.069" cy="87.8921" r="15.5669" transform="rotate(-57.1012 174.069 87.8921)" fill="#E4E4E4"/>
<circle opacity="0.5" cx="174.74" cy="87.8388" r="15.1622" transform="rotate(-57.1012 174.74 87.8388)" fill="url(#paint27_radial_532_2457)"/>
<circle opacity="0.5" cx="174.484" cy="87.7135" r="14.6952" transform="rotate(-57.1012 174.484 87.7135)" fill="url(#paint28_linear_532_2457)"/>
<circle cx="174.077" cy="87.8929" r="11.2082" transform="rotate(-57.1012 174.077 87.8929)" fill="#B8B8B8"/>
<circle cx="174.077" cy="87.8929" r="11.2082" transform="rotate(-57.1012 174.077 87.8929)" fill="url(#paint29_radial_532_2457)"/>
<g filter="url(#filter9_d_532_2457)">
<path d="M170.811 82.5049L167.798 87.1615L173.141 87.3263L170.811 82.5049Z" fill="white"/>
<path d="M169.758 87.6439L167.25 91.521L180.17 91.8861L174.565 80.2126L172.054 84.0955L172.761 85.5598L173.584 84.288L174.582 88.2551L170.565 88.9549L171.381 87.694L169.758 87.6439Z" fill="white"/>
</g>
</g>
</g>
<circle cx="27.9986" cy="81.0062" r="15.5669" fill="#BD5454"/>
<g style="mix-blend-mode:luminosity">
<circle cx="28.006" cy="81.0056" r="15.5669" transform="rotate(136.66 28.006 81.0056)" fill="#FFFD9D"/>
<mask id="mask10_532_2457" style="mask-type:alpha" maskUnits="userSpaceOnUse" x="12" y="65" width="32" height="32">
<circle cx="28.006" cy="81.0056" r="15.5669" transform="rotate(136.66 28.006 81.0056)" fill="#FFFD9D"/>
</mask>
<g mask="url(#mask10_532_2457)">
<circle cx="28.006" cy="81.0056" r="15.5669" transform="rotate(136.66 28.006 81.0056)" fill="#E4E4E4"/>
<circle opacity="0.5" cx="27.3476" cy="80.8977" r="15.1622" transform="rotate(136.66 27.3476 80.8977)" fill="url(#paint30_radial_532_2457)"/>
<circle opacity="0.5" cx="27.5586" cy="81.0804" r="14.6952" transform="rotate(136.66 27.5586 81.0804)" fill="url(#paint31_linear_532_2457)"/>
<circle cx="28.0152" cy="81.006" r="11.2082" transform="rotate(136.66 28.0152 81.006)" fill="#B8B8B8"/>
<circle cx="28.0152" cy="81.006" r="11.2082" transform="rotate(136.66 28.0152 81.006)" fill="url(#paint32_radial_532_2457)"/>
<g filter="url(#filter10_d_532_2457)">
<path d="M29.8901 87.0168L33.9237 83.2104L28.7737 81.7795L29.8901 87.0168Z" fill="white"/>
<path d="M32.1417 82.2734L35.5 79.1042L23.0377 75.6763L25.7046 88.3479L29.068 85.174L28.7289 83.5833L27.6273 84.623L27.6013 80.5322L31.6698 80.8081L30.5776 81.8388L32.1417 82.2734Z" fill="white"/>
</g>
</g>
</g>
<circle cx="237.999" cy="181.006" r="15.5669" fill="#BD5454"/>
<g style="mix-blend-mode:luminosity">
<circle cx="238.006" cy="181.006" r="15.5669" transform="rotate(136.66 238.006 181.006)" fill="#FFFD9D"/>
<mask id="mask11_532_2457" style="mask-type:alpha" maskUnits="userSpaceOnUse" x="222" y="165" width="32" height="32">
<circle cx="238.006" cy="181.006" r="15.5669" transform="rotate(136.66 238.006 181.006)" fill="#FFFD9D"/>
</mask>
<g mask="url(#mask11_532_2457)">
<circle cx="238.006" cy="181.006" r="15.5669" transform="rotate(136.66 238.006 181.006)" fill="#E4E4E4"/>
<circle opacity="0.5" cx="237.348" cy="180.898" r="15.1622" transform="rotate(136.66 237.348 180.898)" fill="url(#paint33_radial_532_2457)"/>
<circle opacity="0.5" cx="237.559" cy="181.08" r="14.6952" transform="rotate(136.66 237.559 181.08)" fill="url(#paint34_linear_532_2457)"/>
<circle cx="238.015" cy="181.006" r="11.2082" transform="rotate(136.66 238.015 181.006)" fill="#B8B8B8"/>
<circle cx="238.015" cy="181.006" r="11.2082" transform="rotate(136.66 238.015 181.006)" fill="url(#paint35_radial_532_2457)"/>
<g filter="url(#filter11_d_532_2457)">
<path d="M239.89 187.017L243.924 183.21L238.774 181.779L239.89 187.017Z" fill="white"/>
<path d="M242.142 182.273L245.5 179.104L233.038 175.676L235.705 188.348L239.068 185.174L238.729 183.583L237.627 184.623L237.601 180.532L241.67 180.808L240.578 181.839L242.142 182.273Z" fill="white"/>
</g>
</g>
</g>
<circle cx="21.9986" cy="223.006" r="15.5669" fill="#BD5454"/>
<g style="mix-blend-mode:luminosity">
<circle cx="22.006" cy="223.006" r="15.5669" transform="rotate(136.66 22.006 223.006)" fill="#FFFD9D"/>
<mask id="mask12_532_2457" style="mask-type:alpha" maskUnits="userSpaceOnUse" x="6" y="207" width="32" height="32">
<circle cx="22.006" cy="223.006" r="15.5669" transform="rotate(136.66 22.006 223.006)" fill="#FFFD9D"/>
</mask>
<g mask="url(#mask12_532_2457)">
<circle cx="22.006" cy="223.006" r="15.5669" transform="rotate(136.66 22.006 223.006)" fill="#E4E4E4"/>
<circle opacity="0.5" cx="21.3476" cy="222.898" r="15.1622" transform="rotate(136.66 21.3476 222.898)" fill="url(#paint36_radial_532_2457)"/>
<circle opacity="0.5" cx="21.5586" cy="223.08" r="14.6952" transform="rotate(136.66 21.5586 223.08)" fill="url(#paint37_linear_532_2457)"/>
<circle cx="22.0152" cy="223.006" r="11.2082" transform="rotate(136.66 22.0152 223.006)" fill="#B8B8B8"/>
<circle cx="22.0152" cy="223.006" r="11.2082" transform="rotate(136.66 22.0152 223.006)" fill="url(#paint38_radial_532_2457)"/>
<g filter="url(#filter12_d_532_2457)">
<path d="M23.8901 229.017L27.9237 225.21L22.7737 223.779L23.8901 229.017Z" fill="white"/>
<path d="M26.1417 224.273L29.5 221.104L17.0377 217.676L19.7046 230.348L23.068 227.174L22.7289 225.583L21.6273 226.623L21.6013 222.532L25.6698 222.808L24.5776 223.839L26.1417 224.273Z" fill="white"/>
</g>
</g>
</g>
<circle cx="148.999" cy="213.007" r="15.5669" fill="#BD5454"/>
<g style="mix-blend-mode:luminosity">
<circle cx="149.006" cy="213.006" r="15.5669" transform="rotate(136.66 149.006 213.006)" fill="#FFFD9D"/>
<mask id="mask13_532_2457" style="mask-type:alpha" maskUnits="userSpaceOnUse" x="133" y="197" width="32" height="32">
<circle cx="149.006" cy="213.006" r="15.5669" transform="rotate(136.66 149.006 213.006)" fill="#FFFD9D"/>
</mask>
<g mask="url(#mask13_532_2457)">
<circle cx="149.006" cy="213.006" r="15.5669" transform="rotate(136.66 149.006 213.006)" fill="#E4E4E4"/>
<circle opacity="0.5" cx="148.348" cy="212.898" r="15.1622" transform="rotate(136.66 148.348 212.898)" fill="url(#paint39_radial_532_2457)"/>
<circle opacity="0.5" cx="148.559" cy="213.081" r="14.6952" transform="rotate(136.66 148.559 213.081)" fill="url(#paint40_linear_532_2457)"/>
<circle cx="149.015" cy="213.007" r="11.2082" transform="rotate(136.66 149.015 213.007)" fill="#B8B8B8"/>
<circle cx="149.015" cy="213.007" r="11.2082" transform="rotate(136.66 149.015 213.007)" fill="url(#paint41_radial_532_2457)"/>
<g filter="url(#filter13_d_532_2457)">
<path d="M150.89 219.018L154.924 215.211L149.774 213.78L150.89 219.018Z" fill="white"/>
<path d="M153.142 214.274L156.5 211.105L144.038 207.677L146.705 220.349L150.068 217.175L149.729 215.584L148.627 216.624L148.601 212.533L152.67 212.809L151.578 213.84L153.142 214.274Z" fill="white"/>
</g>
</g>
</g>
<circle cx="22.6927" cy="141.033" r="15.5669" transform="rotate(37.872 22.6927 141.033)" fill="#FFAD80"/>
<g style="mix-blend-mode:luminosity">
<circle cx="22.6927" cy="141.033" r="15.5669" transform="rotate(37.872 22.6927 141.033)" fill="#FFFD9D"/>
<mask id="mask14_532_2457" style="mask-type:alpha" maskUnits="userSpaceOnUse" x="7" y="125" width="32" height="32">
<circle cx="22.6927" cy="141.033" r="15.5669" transform="rotate(37.872 22.6927 141.033)" fill="#FFFD9D"/>
</mask>
<g mask="url(#mask14_532_2457)">
<circle cx="22.6927" cy="141.033" r="15.5669" transform="rotate(37.872 22.6927 141.033)" fill="#E4E4E4"/>
<circle opacity="0.5" cx="22.6803" cy="141.698" r="15.1622" transform="rotate(37.872 22.6803 141.698)" fill="url(#paint42_radial_532_2457)"/>
<circle opacity="0.5" cx="22.8327" cy="141.46" r="14.6952" transform="rotate(37.872 22.8327 141.46)" fill="url(#paint43_linear_532_2457)"/>
<circle cx="22.6895" cy="141.032" r="11.2082" transform="rotate(37.872 22.6895 141.032)" fill="#B8B8B8"/>
<circle cx="22.6895" cy="141.032" r="11.2082" transform="rotate(37.872 22.6895 141.032)" fill="url(#paint44_radial_532_2457)"/>
<g filter="url(#filter14_d_532_2457)">
<path d="M28.3381 138.251L23.9601 134.846L23.3328 140.154L28.3381 138.251Z" fill="white"/>
<path d="M23.315 136.752L19.6699 133.918L18.1862 146.757L30.3016 142.186L26.651 139.347L25.1309 139.925L26.3266 140.855L22.2879 141.506L21.9389 137.443L23.1244 138.365L23.315 136.752Z" fill="white"/>
</g>
</g>
</g>
<circle cx="291.845" cy="196.846" r="15.5669" transform="rotate(37.872 291.845 196.846)" fill="#FFAD80"/>
<g style="mix-blend-mode:luminosity">
<circle cx="291.845" cy="196.846" r="15.5669" transform="rotate(37.872 291.845 196.846)" fill="#FFFD9D"/>
<mask id="mask15_532_2457" style="mask-type:alpha" maskUnits="userSpaceOnUse" x="276" y="181" width="32" height="32">
<circle cx="291.845" cy="196.846" r="15.5669" transform="rotate(37.872 291.845 196.846)" fill="#FFFD9D"/>
</mask>
<g mask="url(#mask15_532_2457)">
<circle cx="291.845" cy="196.846" r="15.5669" transform="rotate(37.872 291.845 196.846)" fill="#E4E4E4"/>
<circle opacity="0.5" cx="291.833" cy="197.511" r="15.1622" transform="rotate(37.872 291.833 197.511)" fill="url(#paint45_radial_532_2457)"/>
<circle opacity="0.5" cx="291.985" cy="197.273" r="14.6952" transform="rotate(37.872 291.985 197.273)" fill="url(#paint46_linear_532_2457)"/>
<circle cx="291.842" cy="196.845" r="11.2082" transform="rotate(37.872 291.842 196.845)" fill="#B8B8B8"/>
<circle cx="291.842" cy="196.845" r="11.2082" transform="rotate(37.872 291.842 196.845)" fill="url(#paint47_radial_532_2457)"/>
<g filter="url(#filter15_d_532_2457)">
<path d="M297.49 194.064L293.112 190.659L292.485 195.967L297.49 194.064Z" fill="white"/>
<path d="M292.467 192.565L288.822 189.731L287.339 202.57L299.454 197.999L295.803 195.16L294.283 195.738L295.479 196.668L291.44 197.319L291.091 193.256L292.277 194.178L292.467 192.565Z" fill="white"/>
</g>
</g>
</g>
<circle cx="267.845" cy="82.8453" r="15.5669" transform="rotate(37.872 267.845 82.8453)" fill="#FFAD80"/>
<g style="mix-blend-mode:luminosity">
<circle cx="267.845" cy="82.8453" r="15.5669" transform="rotate(37.872 267.845 82.8453)" fill="#FFFD9D"/>
<mask id="mask16_532_2457" style="mask-type:alpha" maskUnits="userSpaceOnUse" x="252" y="67" width="32" height="32">
<circle cx="267.845" cy="82.8453" r="15.5669" transform="rotate(37.872 267.845 82.8453)" fill="#FFFD9D"/>
</mask>
<g mask="url(#mask16_532_2457)">
<circle cx="267.845" cy="82.8453" r="15.5669" transform="rotate(37.872 267.845 82.8453)" fill="#E4E4E4"/>
<circle opacity="0.5" cx="267.833" cy="83.5103" r="15.1622" transform="rotate(37.872 267.833 83.5103)" fill="url(#paint48_radial_532_2457)"/>
<circle opacity="0.5" cx="267.985" cy="83.2724" r="14.6952" transform="rotate(37.872 267.985 83.2724)" fill="url(#paint49_linear_532_2457)"/>
<circle cx="267.842" cy="82.8447" r="11.2082" transform="rotate(37.872 267.842 82.8447)" fill="#B8B8B8"/>
<circle cx="267.842" cy="82.8447" r="11.2082" transform="rotate(37.872 267.842 82.8447)" fill="url(#paint50_radial_532_2457)"/>
<g filter="url(#filter16_d_532_2457)">
<path d="M273.49 80.0629L269.112 76.6582L268.485 81.9664L273.49 80.0629Z" fill="white"/>
<path d="M268.467 78.5647L264.822 75.73L263.339 88.5697L275.454 83.9982L271.803 81.1591L270.283 81.7373L271.479 82.6672L267.44 83.3178L267.091 79.2549L268.277 80.1768L268.467 78.5647Z" fill="white"/>
</g>
</g>
</g>
<circle cx="111.252" cy="65.8853" r="15.5669" fill="#F5FF80"/>
<g style="mix-blend-mode:luminosity">
<circle cx="111.252" cy="65.8853" r="15.5669" fill="#FFFD9D"/>
<mask id="mask17_532_2457" style="mask-type:alpha" maskUnits="userSpaceOnUse" x="95" y="50" width="32" height="32">
<circle cx="111.252" cy="65.8853" r="15.5669" fill="#FFFD9D"/>
</mask>
<g mask="url(#mask17_532_2457)">
<circle cx="111.252" cy="65.8853" r="15.5669" fill="#E4E4E4"/>
<circle opacity="0.5" cx="111.649" cy="66.4156" r="15.1622" fill="url(#paint51_radial_532_2457)"/>
<circle opacity="0.5" cx="111.631" cy="66.1342" r="14.6952" fill="url(#paint52_linear_532_2457)"/>
<circle cx="111.249" cy="65.8847" r="11.2082" fill="#B8B8B8"/>
<circle cx="111.249" cy="65.8847" r="11.2082" fill="url(#paint53_radial_532_2457)"/>
<g filter="url(#filter17_d_532_2457)">
<path d="M113.986 60.2189L108.44 60.2189L111.204 64.7942L113.986 60.2189Z" fill="white"/>
<path d="M109.092 62.1255L104.475 62.1255L111.186 73.1718L117.943 62.1255L113.318 62.1255L112.473 63.5151L113.988 63.5151L111.199 66.508L108.43 63.5151L109.931 63.5151L109.092 62.1255Z" fill="white"/>
</g>
</g>
</g>
<circle cx="269.567" cy="244.567" r="15.5669" fill="#F5FF80"/>
<g style="mix-blend-mode:luminosity">
<circle cx="269.567" cy="244.567" r="15.5669" fill="#FFFD9D"/>
<mask id="mask18_532_2457" style="mask-type:alpha" maskUnits="userSpaceOnUse" x="254" y="229" width="32" height="32">
<circle cx="269.567" cy="244.567" r="15.5669" fill="#FFFD9D"/>
</mask>
<g mask="url(#mask18_532_2457)">
<circle cx="269.567" cy="244.567" r="15.5669" fill="#E4E4E4"/>
<circle opacity="0.5" cx="269.963" cy="245.097" r="15.1622" fill="url(#paint54_radial_532_2457)"/>
<circle opacity="0.5" cx="269.945" cy="244.816" r="14.6952" fill="url(#paint55_linear_532_2457)"/>
<circle cx="269.564" cy="244.566" r="11.2082" fill="#B8B8B8"/>
<circle cx="269.564" cy="244.566" r="11.2082" fill="url(#paint56_radial_532_2457)"/>
<g filter="url(#filter18_d_532_2457)">
<path d="M272.301 238.901L266.755 238.901L269.518 243.476L272.301 238.901Z" fill="white"/>
<path d="M267.407 240.807L262.789 240.807L269.5 251.853L276.257 240.807L271.633 240.807L270.788 242.197L272.302 242.197L269.514 245.19L266.744 242.197L268.246 242.197L267.407 240.807Z" fill="white"/>
</g>
</g>
</g>
<circle cx="305.567" cy="147.567" r="15.5669" fill="#F5FF80"/>
<g style="mix-blend-mode:luminosity">
<circle cx="305.567" cy="147.567" r="15.5669" fill="#FFFD9D"/>
<mask id="mask19_532_2457" style="mask-type:alpha" maskUnits="userSpaceOnUse" x="290" y="132" width="32" height="32">
<circle cx="305.567" cy="147.567" r="15.5669" fill="#FFFD9D"/>
</mask>
<g mask="url(#mask19_532_2457)">
<circle cx="305.567" cy="147.567" r="15.5669" fill="#E4E4E4"/>
<circle opacity="0.5" cx="305.963" cy="148.097" r="15.1622" fill="url(#paint57_radial_532_2457)"/>
<circle opacity="0.5" cx="305.945" cy="147.816" r="14.6952" fill="url(#paint58_linear_532_2457)"/>
<circle cx="305.564" cy="147.566" r="11.2082" fill="#B8B8B8"/>
<circle cx="305.564" cy="147.566" r="11.2082" fill="url(#paint59_radial_532_2457)"/>
<g filter="url(#filter19_d_532_2457)">
<path d="M308.301 141.901L302.755 141.901L305.518 146.476L308.301 141.901Z" fill="white"/>
<path d="M303.407 143.807L298.789 143.807L305.5 154.853L312.257 143.807L307.633 143.807L306.788 145.197L308.302 145.197L305.514 148.19L302.744 145.197L304.246 145.197L303.407 143.807Z" fill="white"/>
</g>
</g>
</g>
<circle cx="69.3717" cy="25.3728" r="15.5669" transform="rotate(-106.639 69.3717 25.3728)" fill="#A9FA95"/>
<g style="mix-blend-mode:luminosity">
<circle cx="69.3717" cy="25.3725" r="15.5669" transform="rotate(-106.639 69.3717 25.3725)" fill="#FFFD9D"/>
<mask id="mask20_532_2457" style="mask-type:alpha" maskUnits="userSpaceOnUse" x="53" y="9" width="32" height="32">
<circle cx="69.3717" cy="25.3725" r="15.5669" transform="rotate(-106.639 69.3717 25.3725)" fill="#FFFD9D"/>
</mask>
<g mask="url(#mask20_532_2457)">
<circle cx="69.3717" cy="25.3725" r="15.5669" transform="rotate(-106.639 69.3717 25.3725)" fill="#E4E4E4"/>
<circle opacity="0.5" cx="69.7639" cy="24.8337" r="15.1622" transform="rotate(-106.639 69.7639 24.8337)" fill="url(#paint60_radial_532_2457)"/>
<circle opacity="0.5" cx="69.5088" cy="24.9437" r="14.6952" transform="rotate(-106.639 69.5088 24.9437)" fill="url(#paint61_linear_532_2457)"/>
<circle cx="69.3733" cy="25.3718" r="11.2082" transform="rotate(-106.639 69.3733 25.3718)" fill="#B8B8B8"/>
<circle cx="69.3733" cy="25.3718" r="11.2082" transform="rotate(-106.639 69.3733 25.3718)" fill="url(#paint62_radial_532_2457)"/>
<g filter="url(#filter20_d_532_2457)">
<path d="M63.1651 24.3579L64.7532 29.6717L68.3456 25.7138L63.1651 24.3579Z" fill="white"/>
<path d="M66.4024 28.4969L67.7246 32.9211L76.3867 23.3281L63.8681 20.0168L65.1923 24.4477L66.7656 24.8595L66.3319 23.4082L69.9981 25.2231L67.9235 28.7338L67.4935 27.2949L66.4024 28.4969Z" fill="white"/>
</g>
</g>
</g>
<circle cx="65.3717" cy="183.373" r="15.5669" transform="rotate(-106.639 65.3717 183.373)" fill="#A9FA95"/>
<g style="mix-blend-mode:luminosity">
<circle cx="65.3717" cy="183.373" r="15.5669" transform="rotate(-106.639 65.3717 183.373)" fill="#FFFD9D"/>
<mask id="mask21_532_2457" style="mask-type:alpha" maskUnits="userSpaceOnUse" x="49" y="167" width="32" height="32">
<circle cx="65.3717" cy="183.373" r="15.5669" transform="rotate(-106.639 65.3717 183.373)" fill="#FFFD9D"/>
</mask>
<g mask="url(#mask21_532_2457)">
<circle cx="65.3717" cy="183.373" r="15.5669" transform="rotate(-106.639 65.3717 183.373)" fill="#E4E4E4"/>
<circle opacity="0.5" cx="65.7639" cy="182.834" r="15.1622" transform="rotate(-106.639 65.7639 182.834)" fill="url(#paint63_radial_532_2457)"/>
<circle opacity="0.5" cx="65.5088" cy="182.944" r="14.6952" transform="rotate(-106.639 65.5088 182.944)" fill="url(#paint64_linear_532_2457)"/>
<circle cx="65.3733" cy="183.372" r="11.2082" transform="rotate(-106.639 65.3733 183.372)" fill="#B8B8B8"/>
<circle cx="65.3733" cy="183.372" r="11.2082" transform="rotate(-106.639 65.3733 183.372)" fill="url(#paint65_radial_532_2457)"/>
<g filter="url(#filter21_d_532_2457)">
<path d="M59.1651 182.358L60.7532 187.672L64.3456 183.714L59.1651 182.358Z" fill="white"/>
<path d="M62.4024 186.497L63.7246 190.921L72.3867 181.328L59.8681 178.017L61.1923 182.448L62.7656 182.86L62.3319 181.408L65.9981 183.223L63.9235 186.734L63.4935 185.295L62.4024 186.497Z" fill="white"/>
</g>
</g>
</g>
<circle cx="212.372" cy="39.3735" r="15.5669" transform="rotate(-106.639 212.372 39.3735)" fill="#A9FA95"/>
<g style="mix-blend-mode:luminosity">
<circle cx="212.372" cy="39.3733" r="15.5669" transform="rotate(-106.639 212.372 39.3733)" fill="#FFFD9D"/>
<mask id="mask22_532_2457" style="mask-type:alpha" maskUnits="userSpaceOnUse" x="196" y="23" width="32" height="32">
<circle cx="212.372" cy="39.3733" r="15.5669" transform="rotate(-106.639 212.372 39.3733)" fill="#FFFD9D"/>
</mask>
<g mask="url(#mask22_532_2457)">
<circle cx="212.372" cy="39.3733" r="15.5669" transform="rotate(-106.639 212.372 39.3733)" fill="#E4E4E4"/>
<circle opacity="0.5" cx="212.764" cy="38.8345" r="15.1622" transform="rotate(-106.639 212.764 38.8345)" fill="url(#paint66_radial_532_2457)"/>
<circle opacity="0.5" cx="212.509" cy="38.9445" r="14.6952" transform="rotate(-106.639 212.509 38.9445)" fill="url(#paint67_linear_532_2457)"/>
<circle cx="212.373" cy="39.3725" r="11.2082" transform="rotate(-106.639 212.373 39.3725)" fill="#B8B8B8"/>
<circle cx="212.373" cy="39.3725" r="11.2082" transform="rotate(-106.639 212.373 39.3725)" fill="url(#paint68_radial_532_2457)"/>
<g filter="url(#filter22_d_532_2457)">
<path d="M206.165 38.3587L207.753 43.6724L211.346 39.7146L206.165 38.3587Z" fill="white"/>
<path d="M209.402 42.4977L210.725 46.9219L219.387 37.3288L206.868 34.0175L208.192 38.4484L209.766 38.8603L209.332 37.4089L212.998 39.2238L210.923 42.7345L210.493 41.2956L209.402 42.4977Z" fill="white"/>
</g>
</g>
</g>
<g style="mix-blend-mode:luminosity">
<circle cx="178.902" cy="159.823" r="15.5669" transform="rotate(164.758 178.902 159.823)" fill="#FFFD9D"/>
<mask id="mask23_532_2457" style="mask-type:alpha" maskUnits="userSpaceOnUse" x="163" y="144" width="32" height="32">
<circle cx="178.902" cy="159.823" r="15.5669" transform="rotate(164.758 178.902 159.823)" fill="#FFFD9D"/>
</mask>
<g mask="url(#mask23_532_2457)">
<circle cx="178.902" cy="159.823" r="15.5669" transform="rotate(164.758 178.902 159.823)" fill="#E4E4E4"/>
<circle opacity="0.5" cx="178.364" cy="159.419" r="15.1622" transform="rotate(164.758 178.364 159.419)" fill="url(#paint69_radial_532_2457)"/>
<circle opacity="0.5" cx="178.468" cy="159.681" r="14.6952" transform="rotate(164.758 178.468 159.681)" fill="url(#paint70_linear_532_2457)"/>
<circle cx="178.902" cy="159.824" r="11.2082" transform="rotate(164.758 178.902 159.824)" fill="#B8B8B8"/>
<circle cx="178.902" cy="159.824" r="11.2082" transform="rotate(164.758 178.902 159.824)" fill="url(#paint71_radial_532_2457)"/>
<g filter="url(#filter23_d_532_2457)">
<path d="M177.732 166.014L183.083 164.556L179.214 160.868L177.732 166.014Z" fill="white"/>
<path d="M181.957 162.889L186.412 161.675L177.033 152.782L173.418 165.216L177.879 164L178.33 162.437L176.868 162.835L178.772 159.215L182.231 161.374L180.782 161.769L181.957 162.889Z" fill="white"/>
</g>
</g>
</g>
<g style="mix-blend-mode:luminosity">
<circle cx="323.113" cy="69.112" r="15.5669" transform="rotate(164.758 323.113 69.112)" fill="#FFFD9D"/>
<mask id="mask24_532_2457" style="mask-type:alpha" maskUnits="userSpaceOnUse" x="307" y="53" width="32" height="32">
<circle cx="323.113" cy="69.112" r="15.5669" transform="rotate(164.758 323.113 69.112)" fill="#FFFD9D"/>
</mask>
<g mask="url(#mask24_532_2457)">
<circle cx="323.113" cy="69.112" r="15.5669" transform="rotate(164.758 323.113 69.112)" fill="#E4E4E4"/>
<circle opacity="0.5" cx="322.574" cy="68.7076" r="15.1622" transform="rotate(164.758 322.574 68.7076)" fill="url(#paint72_radial_532_2457)"/>
<circle opacity="0.5" cx="322.679" cy="68.9695" r="14.6952" transform="rotate(164.758 322.679 68.9695)" fill="url(#paint73_linear_532_2457)"/>
<circle cx="323.112" cy="69.1124" r="11.2082" transform="rotate(164.758 323.112 69.1124)" fill="#B8B8B8"/>
<circle cx="323.112" cy="69.1124" r="11.2082" transform="rotate(164.758 323.112 69.1124)" fill="url(#paint74_radial_532_2457)"/>
<g filter="url(#filter24_d_532_2457)">
<path d="M321.943 75.3025L327.294 73.8445L323.425 70.1567L321.943 75.3025Z" fill="white"/>
<path d="M326.168 72.1778L330.623 70.9639L321.244 62.0704L317.628 74.5047L322.09 73.2889L322.54 71.726L321.079 72.1242L322.983 68.5034L326.442 70.663L324.993 71.0578L326.168 72.1778Z" fill="white"/>
</g>
</g>
</g>
<defs>
<filter id="filter0_d_532_2457" x="38.3105" y="80.2993" width="73.2422" height="73.1597" filterUnits="userSpaceOnUse" color-interpolation-filters="sRGB">
<feFlood flood-opacity="0" result="BackgroundImageFix"/>
<feColorMatrix in="SourceAlpha" type="matrix" values="0 0 0 0 0 0 0 0 0 0 0 0 0 0 0 0 0 0 127 0" result="hardAlpha"/>
<feOffset dx="4" dy="4"/>
<feGaussianBlur stdDeviation="15"/>
<feComposite in2="hardAlpha" operator="out"/>
<feColorMatrix type="matrix" values="0 0 0 0 0.713726 0 0 0 0 0.462745 0 0 0 0 0.109804 0 0 0 0.5 0"/>
<feBlend mode="normal" in2="BackgroundImageFix" result="effect1_dropShadow_532_2457"/>
<feBlend mode="normal" in="SourceGraphic" in2="effect1_dropShadow_532_2457" result="shape"/>
</filter>
<filter id="filter1_d_532_2457" x="317.396" y="179.164" width="73.2422" height="73.1597" filterUnits="userSpaceOnUse" color-interpolation-filters="sRGB">
<feFlood flood-opacity="0" result="BackgroundImageFix"/>
<feColorMatrix in="SourceAlpha" type="matrix" values="0 0 0 0 0 0 0 0 0 0 0 0 0 0 0 0 0 0 127 0" result="hardAlpha"/>
<feOffset dx="4" dy="4"/>
<feGaussianBlur stdDeviation="15"/>
<feComposite in2="hardAlpha" operator="out"/>
<feColorMatrix type="matrix" values="0 0 0 0 0.713726 0 0 0 0 0.462745 0 0 0 0 0.109804 0 0 0 0.5 0"/>
<feBlend mode="normal" in2="BackgroundImageFix" result="effect1_dropShadow_532_2457"/>
<feBlend mode="normal" in="SourceGraphic" in2="effect1_dropShadow_532_2457" result="shape"/>
</filter>
<filter id="filter2_d_532_2457" x="102.266" y="-13.8618" width="73.2305" height="73.2502" filterUnits="userSpaceOnUse" color-interpolation-filters="sRGB">
<feFlood flood-opacity="0" result="BackgroundImageFix"/>
<feColorMatrix in="SourceAlpha" type="matrix" values="0 0 0 0 0 0 0 0 0 0 0 0 0 0 0 0 0 0 127 0" result="hardAlpha"/>
<feOffset dx="4" dy="4"/>
<feGaussianBlur stdDeviation="15"/>
<feComposite in2="hardAlpha" operator="out"/>
<feColorMatrix type="matrix" values="0 0 0 0 0.713726 0 0 0 0 0.462745 0 0 0 0 0.109804 0 0 0 0.5 0"/>
<feBlend mode="normal" in2="BackgroundImageFix" result="effect1_dropShadow_532_2457"/>
<feBlend mode="normal" in="SourceGraphic" in2="effect1_dropShadow_532_2457" result="shape"/>
</filter>
<filter id="filter3_d_532_2457" x="171.938" y="202.136" width="73.2305" height="73.2502" filterUnits="userSpaceOnUse" color-interpolation-filters="sRGB">
<feFlood flood-opacity="0" result="BackgroundImageFix"/>
<feColorMatrix in="SourceAlpha" type="matrix" values="0 0 0 0 0 0 0 0 0 0 0 0 0 0 0 0 0 0 127 0" result="hardAlpha"/>
<feOffset dx="4" dy="4"/>
<feGaussianBlur stdDeviation="15"/>
<feComposite in2="hardAlpha" operator="out"/>
<feColorMatrix type="matrix" values="0 0 0 0 0.713726 0 0 0 0 0.462745 0 0 0 0 0.109804 0 0 0 0.5 0"/>
<feBlend mode="normal" in2="BackgroundImageFix" result="effect1_dropShadow_532_2457"/>
<feBlend mode="normal" in="SourceGraphic" in2="effect1_dropShadow_532_2457" result="shape"/>
</filter>
<filter id="filter4_d_532_2457" x="200.938" y="91.1357" width="73.2305" height="73.2502" filterUnits="userSpaceOnUse" color-interpolation-filters="sRGB">
<feFlood flood-opacity="0" result="BackgroundImageFix"/>
<feColorMatrix in="SourceAlpha" type="matrix" values="0 0 0 0 0 0 0 0 0 0 0 0 0 0 0 0 0 0 127 0" result="hardAlpha"/>
<feOffset dx="4" dy="4"/>
<feGaussianBlur stdDeviation="15"/>
<feComposite in2="hardAlpha" operator="out"/>
<feColorMatrix type="matrix" values="0 0 0 0 0.713726 0 0 0 0 0.462745 0 0 0 0 0.109804 0 0 0 0.5 0"/>
<feBlend mode="normal" in2="BackgroundImageFix" result="effect1_dropShadow_532_2457"/>
<feBlend mode="normal" in="SourceGraphic" in2="effect1_dropShadow_532_2457" result="shape"/>
</filter>
<filter id="filter5_d_532_2457" x="86.3652" y="112.619" width="73.0469" height="73.2429" filterUnits="userSpaceOnUse" color-interpolation-filters="sRGB">
<feFlood flood-opacity="0" result="BackgroundImageFix"/>
<feColorMatrix in="SourceAlpha" type="matrix" values="0 0 0 0 0 0 0 0 0 0 0 0 0 0 0 0 0 0 127 0" result="hardAlpha"/>
<feOffset dx="4" dy="4"/>
<feGaussianBlur stdDeviation="15"/>
<feComposite in2="hardAlpha" operator="out"/>
<feColorMatrix type="matrix" values="0 0 0 0 0.713726 0 0 0 0 0.462745 0 0 0 0 0.109804 0 0 0 0.5 0"/>
<feBlend mode="normal" in2="BackgroundImageFix" result="effect1_dropShadow_532_2457"/>
<feBlend mode="normal" in="SourceGraphic" in2="effect1_dropShadow_532_2457" result="shape"/>
</filter>
<filter id="filter6_d_532_2457" x="66.4648" y="207.767" width="73.0469" height="73.2429" filterUnits="userSpaceOnUse" color-interpolation-filters="sRGB">
<feFlood flood-opacity="0" result="BackgroundImageFix"/>
<feColorMatrix in="SourceAlpha" type="matrix" values="0 0 0 0 0 0 0 0 0 0 0 0 0 0 0 0 0 0 127 0" result="hardAlpha"/>
<feOffset dx="4" dy="4"/>
<feGaussianBlur stdDeviation="15"/>
<feComposite in2="hardAlpha" operator="out"/>
<feColorMatrix type="matrix" values="0 0 0 0 0.713726 0 0 0 0 0.462745 0 0 0 0 0.109804 0 0 0 0.5 0"/>
<feBlend mode="normal" in2="BackgroundImageFix" result="effect1_dropShadow_532_2457"/>
<feBlend mode="normal" in="SourceGraphic" in2="effect1_dropShadow_532_2457" result="shape"/>
</filter>
<filter id="filter7_d_532_2457" x="234.465" y="-13.2317" width="73.0469" height="73.2429" filterUnits="userSpaceOnUse" color-interpolation-filters="sRGB">
<feFlood flood-opacity="0" result="BackgroundImageFix"/>
<feColorMatrix in="SourceAlpha" type="matrix" values="0 0 0 0 0 0 0 0 0 0 0 0 0 0 0 0 0 0 127 0" result="hardAlpha"/>
<feOffset dx="4" dy="4"/>
<feGaussianBlur stdDeviation="15"/>
<feComposite in2="hardAlpha" operator="out"/>
<feColorMatrix type="matrix" values="0 0 0 0 0.713726 0 0 0 0 0.462745 0 0 0 0 0.109804 0 0 0 0.5 0"/>
<feBlend mode="normal" in2="BackgroundImageFix" result="effect1_dropShadow_532_2457"/>
<feBlend mode="normal" in="SourceGraphic" in2="effect1_dropShadow_532_2457" result="shape"/>
</filter>
<filter id="filter8_d_532_2457" x="327.465" y="86.7673" width="73.0469" height="73.2429" filterUnits="userSpaceOnUse" color-interpolation-filters="sRGB">
<feFlood flood-opacity="0" result="BackgroundImageFix"/>
<feColorMatrix in="SourceAlpha" type="matrix" values="0 0 0 0 0 0 0 0 0 0 0 0 0 0 0 0 0 0 127 0" result="hardAlpha"/>
<feOffset dx="4" dy="4"/>
<feGaussianBlur stdDeviation="15"/>
<feComposite in2="hardAlpha" operator="out"/>
<feColorMatrix type="matrix" values="0 0 0 0 0.713726 0 0 0 0 0.462745 0 0 0 0 0.109804 0 0 0 0.5 0"/>
<feBlend mode="normal" in2="BackgroundImageFix" result="effect1_dropShadow_532_2457"/>
<feBlend mode="normal" in="SourceGraphic" in2="effect1_dropShadow_532_2457" result="shape"/>
</filter>
<filter id="filter9_d_532_2457" x="141.25" y="54.2126" width="72.9199" height="71.6733" filterUnits="userSpaceOnUse" color-interpolation-filters="sRGB">
<feFlood flood-opacity="0" result="BackgroundImageFix"/>
<feColorMatrix in="SourceAlpha" type="matrix" values="0 0 0 0 0 0 0 0 0 0 0 0 0 0 0 0 0 0 127 0" result="hardAlpha"/>
<feOffset dx="4" dy="4"/>
<feGaussianBlur stdDeviation="15"/>
<feComposite in2="hardAlpha" operator="out"/>
<feColorMatrix type="matrix" values="0 0 0 0 0.713726 0 0 0 0 0.462745 0 0 0 0 0.109804 0 0 0 0.5 0"/>
<feBlend mode="normal" in2="BackgroundImageFix" result="effect1_dropShadow_532_2457"/>
<feBlend mode="normal" in="SourceGraphic" in2="effect1_dropShadow_532_2457" result="shape"/>
</filter>
<filter id="filter10_d_532_2457" x="-2.96289" y="49.6763" width="72.4629" height="72.6716" filterUnits="userSpaceOnUse" color-interpolation-filters="sRGB">
<feFlood flood-opacity="0" result="BackgroundImageFix"/>
<feColorMatrix in="SourceAlpha" type="matrix" values="0 0 0 0 0 0 0 0 0 0 0 0 0 0 0 0 0 0 127 0" result="hardAlpha"/>
<feOffset dx="4" dy="4"/>
<feGaussianBlur stdDeviation="15"/>
<feComposite in2="hardAlpha" operator="out"/>
<feColorMatrix type="matrix" values="0 0 0 0 0.713726 0 0 0 0 0.462745 0 0 0 0 0.109804 0 0 0 0.5 0"/>
<feBlend mode="normal" in2="BackgroundImageFix" result="effect1_dropShadow_532_2457"/>
<feBlend mode="normal" in="SourceGraphic" in2="effect1_dropShadow_532_2457" result="shape"/>
</filter>
<filter id="filter11_d_532_2457" x="207.037" y="149.676" width="72.4629" height="72.6716" filterUnits="userSpaceOnUse" color-interpolation-filters="sRGB">
<feFlood flood-opacity="0" result="BackgroundImageFix"/>
<feColorMatrix in="SourceAlpha" type="matrix" values="0 0 0 0 0 0 0 0 0 0 0 0 0 0 0 0 0 0 127 0" result="hardAlpha"/>
<feOffset dx="4" dy="4"/>
<feGaussianBlur stdDeviation="15"/>
<feComposite in2="hardAlpha" operator="out"/>
<feColorMatrix type="matrix" values="0 0 0 0 0.713726 0 0 0 0 0.462745 0 0 0 0 0.109804 0 0 0 0.5 0"/>
<feBlend mode="normal" in2="BackgroundImageFix" result="effect1_dropShadow_532_2457"/>
<feBlend mode="normal" in="SourceGraphic" in2="effect1_dropShadow_532_2457" result="shape"/>
</filter>
<filter id="filter12_d_532_2457" x="-8.96289" y="191.676" width="72.4629" height="72.6716" filterUnits="userSpaceOnUse" color-interpolation-filters="sRGB">
<feFlood flood-opacity="0" result="BackgroundImageFix"/>
<feColorMatrix in="SourceAlpha" type="matrix" values="0 0 0 0 0 0 0 0 0 0 0 0 0 0 0 0 0 0 127 0" result="hardAlpha"/>
<feOffset dx="4" dy="4"/>
<feGaussianBlur stdDeviation="15"/>
<feComposite in2="hardAlpha" operator="out"/>
<feColorMatrix type="matrix" values="0 0 0 0 0.713726 0 0 0 0 0.462745 0 0 0 0 0.109804 0 0 0 0.5 0"/>
<feBlend mode="normal" in2="BackgroundImageFix" result="effect1_dropShadow_532_2457"/>
<feBlend mode="normal" in="SourceGraphic" in2="effect1_dropShadow_532_2457" result="shape"/>
</filter>
<filter id="filter13_d_532_2457" x="118.037" y="181.677" width="72.4629" height="72.6716" filterUnits="userSpaceOnUse" color-interpolation-filters="sRGB">
<feFlood flood-opacity="0" result="BackgroundImageFix"/>
<feColorMatrix in="SourceAlpha" type="matrix" values="0 0 0 0 0 0 0 0 0 0 0 0 0 0 0 0 0 0 127 0" result="hardAlpha"/>
<feOffset dx="4" dy="4"/>
<feGaussianBlur stdDeviation="15"/>
<feComposite in2="hardAlpha" operator="out"/>
<feColorMatrix type="matrix" values="0 0 0 0 0.713726 0 0 0 0 0.462745 0 0 0 0 0.109804 0 0 0 0.5 0"/>
<feBlend mode="normal" in2="BackgroundImageFix" result="effect1_dropShadow_532_2457"/>
<feBlend mode="normal" in="SourceGraphic" in2="effect1_dropShadow_532_2457" result="shape"/>
</filter>
<filter id="filter14_d_532_2457" x="-7.81445" y="107.918" width="72.1152" height="72.8396" filterUnits="userSpaceOnUse" color-interpolation-filters="sRGB">
<feFlood flood-opacity="0" result="BackgroundImageFix"/>
<feColorMatrix in="SourceAlpha" type="matrix" values="0 0 0 0 0 0 0 0 0 0 0 0 0 0 0 0 0 0 127 0" result="hardAlpha"/>
<feOffset dx="4" dy="4"/>
<feGaussianBlur stdDeviation="15"/>
<feComposite in2="hardAlpha" operator="out"/>
<feColorMatrix type="matrix" values="0 0 0 0 0.713726 0 0 0 0 0.462745 0 0 0 0 0.109804 0 0 0 0.5 0"/>
<feBlend mode="normal" in2="BackgroundImageFix" result="effect1_dropShadow_532_2457"/>
<feBlend mode="normal" in="SourceGraphic" in2="effect1_dropShadow_532_2457" result="shape"/>
</filter>
<filter id="filter15_d_532_2457" x="261.338" y="163.731" width="72.1152" height="72.8396" filterUnits="userSpaceOnUse" color-interpolation-filters="sRGB">
<feFlood flood-opacity="0" result="BackgroundImageFix"/>
<feColorMatrix in="SourceAlpha" type="matrix" values="0 0 0 0 0 0 0 0 0 0 0 0 0 0 0 0 0 0 127 0" result="hardAlpha"/>
<feOffset dx="4" dy="4"/>
<feGaussianBlur stdDeviation="15"/>
<feComposite in2="hardAlpha" operator="out"/>
<feColorMatrix type="matrix" values="0 0 0 0 0.713726 0 0 0 0 0.462745 0 0 0 0 0.109804 0 0 0 0.5 0"/>
<feBlend mode="normal" in2="BackgroundImageFix" result="effect1_dropShadow_532_2457"/>
<feBlend mode="normal" in="SourceGraphic" in2="effect1_dropShadow_532_2457" result="shape"/>
</filter>
<filter id="filter16_d_532_2457" x="237.338" y="49.73" width="72.1152" height="72.8396" filterUnits="userSpaceOnUse" color-interpolation-filters="sRGB">
<feFlood flood-opacity="0" result="BackgroundImageFix"/>
<feColorMatrix in="SourceAlpha" type="matrix" values="0 0 0 0 0 0 0 0 0 0 0 0 0 0 0 0 0 0 127 0" result="hardAlpha"/>
<feOffset dx="4" dy="4"/>
<feGaussianBlur stdDeviation="15"/>
<feComposite in2="hardAlpha" operator="out"/>
<feColorMatrix type="matrix" values="0 0 0 0 0.713726 0 0 0 0 0.462745 0 0 0 0 0.109804 0 0 0 0.5 0"/>
<feBlend mode="normal" in2="BackgroundImageFix" result="effect1_dropShadow_532_2457"/>
<feBlend mode="normal" in="SourceGraphic" in2="effect1_dropShadow_532_2457" result="shape"/>
</filter>
<filter id="filter17_d_532_2457" x="78.4746" y="34.219" width="73.4688" height="72.9529" filterUnits="userSpaceOnUse" color-interpolation-filters="sRGB">
<feFlood flood-opacity="0" result="BackgroundImageFix"/>
<feColorMatrix in="SourceAlpha" type="matrix" values="0 0 0 0 0 0 0 0 0 0 0 0 0 0 0 0 0 0 127 0" result="hardAlpha"/>
<feOffset dx="4" dy="4"/>
<feGaussianBlur stdDeviation="15"/>
<feComposite in2="hardAlpha" operator="out"/>
<feColorMatrix type="matrix" values="0 0 0 0 0.713726 0 0 0 0 0.462745 0 0 0 0 0.109804 0 0 0 0.5 0"/>
<feBlend mode="normal" in2="BackgroundImageFix" result="effect1_dropShadow_532_2457"/>
<feBlend mode="normal" in="SourceGraphic" in2="effect1_dropShadow_532_2457" result="shape"/>
</filter>
<filter id="filter18_d_532_2457" x="236.789" y="212.901" width="73.4688" height="72.9529" filterUnits="userSpaceOnUse" color-interpolation-filters="sRGB">
<feFlood flood-opacity="0" result="BackgroundImageFix"/>
<feColorMatrix in="SourceAlpha" type="matrix" values="0 0 0 0 0 0 0 0 0 0 0 0 0 0 0 0 0 0 127 0" result="hardAlpha"/>
<feOffset dx="4" dy="4"/>
<feGaussianBlur stdDeviation="15"/>
<feComposite in2="hardAlpha" operator="out"/>
<feColorMatrix type="matrix" values="0 0 0 0 0.713726 0 0 0 0 0.462745 0 0 0 0 0.109804 0 0 0 0.5 0"/>
<feBlend mode="normal" in2="BackgroundImageFix" result="effect1_dropShadow_532_2457"/>
<feBlend mode="normal" in="SourceGraphic" in2="effect1_dropShadow_532_2457" result="shape"/>
</filter>
<filter id="filter19_d_532_2457" x="272.789" y="115.901" width="73.4688" height="72.9529" filterUnits="userSpaceOnUse" color-interpolation-filters="sRGB">
<feFlood flood-opacity="0" result="BackgroundImageFix"/>
<feColorMatrix in="SourceAlpha" type="matrix" values="0 0 0 0 0 0 0 0 0 0 0 0 0 0 0 0 0 0 127 0" result="hardAlpha"/>
<feOffset dx="4" dy="4"/>
<feGaussianBlur stdDeviation="15"/>
<feComposite in2="hardAlpha" operator="out"/>
<feColorMatrix type="matrix" values="0 0 0 0 0.713726 0 0 0 0 0.462745 0 0 0 0 0.109804 0 0 0 0.5 0"/>
<feBlend mode="normal" in2="BackgroundImageFix" result="effect1_dropShadow_532_2457"/>
<feBlend mode="normal" in="SourceGraphic" in2="effect1_dropShadow_532_2457" result="shape"/>
</filter>
<filter id="filter20_d_532_2457" x="37.166" y="-5.98315" width="73.2207" height="72.9043" filterUnits="userSpaceOnUse" color-interpolation-filters="sRGB">
<feFlood flood-opacity="0" result="BackgroundImageFix"/>
<feColorMatrix in="SourceAlpha" type="matrix" values="0 0 0 0 0 0 0 0 0 0 0 0 0 0 0 0 0 0 127 0" result="hardAlpha"/>
<feOffset dx="4" dy="4"/>
<feGaussianBlur stdDeviation="15"/>
<feComposite in2="hardAlpha" operator="out"/>
<feColorMatrix type="matrix" values="0 0 0 0 0.713726 0 0 0 0 0.462745 0 0 0 0 0.109804 0 0 0 0.5 0"/>
<feBlend mode="normal" in2="BackgroundImageFix" result="effect1_dropShadow_532_2457"/>
<feBlend mode="normal" in="SourceGraphic" in2="effect1_dropShadow_532_2457" result="shape"/>
</filter>
<filter id="filter21_d_532_2457" x="33.166" y="152.017" width="73.2207" height="72.9043" filterUnits="userSpaceOnUse" color-interpolation-filters="sRGB">
<feFlood flood-opacity="0" result="BackgroundImageFix"/>
<feColorMatrix in="SourceAlpha" type="matrix" values="0 0 0 0 0 0 0 0 0 0 0 0 0 0 0 0 0 0 127 0" result="hardAlpha"/>
<feOffset dx="4" dy="4"/>
<feGaussianBlur stdDeviation="15"/>
<feComposite in2="hardAlpha" operator="out"/>
<feColorMatrix type="matrix" values="0 0 0 0 0.713726 0 0 0 0 0.462745 0 0 0 0 0.109804 0 0 0 0.5 0"/>
<feBlend mode="normal" in2="BackgroundImageFix" result="effect1_dropShadow_532_2457"/>
<feBlend mode="normal" in="SourceGraphic" in2="effect1_dropShadow_532_2457" result="shape"/>
</filter>
<filter id="filter22_d_532_2457" x="180.166" y="8.01758" width="73.2207" height="72.9043" filterUnits="userSpaceOnUse" color-interpolation-filters="sRGB">
<feFlood flood-opacity="0" result="BackgroundImageFix"/>
<feColorMatrix in="SourceAlpha" type="matrix" values="0 0 0 0 0 0 0 0 0 0 0 0 0 0 0 0 0 0 127 0" result="hardAlpha"/>
<feOffset dx="4" dy="4"/>
<feGaussianBlur stdDeviation="15"/>
<feComposite in2="hardAlpha" operator="out"/>
<feColorMatrix type="matrix" values="0 0 0 0 0.713726 0 0 0 0 0.462745 0 0 0 0 0.109804 0 0 0 0.5 0"/>
<feBlend mode="normal" in2="BackgroundImageFix" result="effect1_dropShadow_532_2457"/>
<feBlend mode="normal" in="SourceGraphic" in2="effect1_dropShadow_532_2457" result="shape"/>
</filter>
<filter id="filter23_d_532_2457" x="147.418" y="126.782" width="72.9941" height="73.2319" filterUnits="userSpaceOnUse" color-interpolation-filters="sRGB">
<feFlood flood-opacity="0" result="BackgroundImageFix"/>
<feColorMatrix in="SourceAlpha" type="matrix" values="0 0 0 0 0 0 0 0 0 0 0 0 0 0 0 0 0 0 127 0" result="hardAlpha"/>
<feOffset dx="4" dy="4"/>
<feGaussianBlur stdDeviation="15"/>
<feComposite in2="hardAlpha" operator="out"/>
<feColorMatrix type="matrix" values="0 0 0 0 0.713726 0 0 0 0 0.462745 0 0 0 0 0.109804 0 0 0 0.5 0"/>
<feBlend mode="normal" in2="BackgroundImageFix" result="effect1_dropShadow_532_2457"/>
<feBlend mode="normal" in="SourceGraphic" in2="effect1_dropShadow_532_2457" result="shape"/>
</filter>
<filter id="filter24_d_532_2457" x="291.629" y="36.0706" width="72.9941" height="73.2319" filterUnits="userSpaceOnUse" color-interpolation-filters="sRGB">
<feFlood flood-opacity="0" result="BackgroundImageFix"/>
<feColorMatrix in="SourceAlpha" type="matrix" values="0 0 0 0 0 0 0 0 0 0 0 0 0 0 0 0 0 0 127 0" result="hardAlpha"/>
<feOffset dx="4" dy="4"/>
<feGaussianBlur stdDeviation="15"/>
<feComposite in2="hardAlpha" operator="out"/>
<feColorMatrix type="matrix" values="0 0 0 0 0.713726 0 0 0 0 0.462745 0 0 0 0 0.109804 0 0 0 0.5 0"/>
<feBlend mode="normal" in2="BackgroundImageFix" result="effect1_dropShadow_532_2457"/>
<feBlend mode="normal" in="SourceGraphic" in2="effect1_dropShadow_532_2457" result="shape"/>
</filter>
<radialGradient id="paint0_radial_532_2457" cx="0" cy="0" r="1" gradientUnits="userSpaceOnUse" gradientTransform="translate(68.5592 109.423) rotate(46.9068) scale(17.864)">
<stop offset="0.598958" stop-color="#C9C2C2" stop-opacity="0"/>
<stop offset="1" stop-color="#898989"/>
</radialGradient>
<linearGradient id="paint1_linear_532_2457" x1="58.4698" y1="102.107" x2="81.0418" y2="123.309" gradientUnits="userSpaceOnUse">
<stop stop-color="#C5C5C5"/>
<stop offset="1" stop-color="#B1B1B1"/>
</linearGradient>
<radialGradient id="paint2_radial_532_2457" cx="0" cy="0" r="1" gradientUnits="userSpaceOnUse" gradientTransform="translate(71.4624 114.839) rotate(-132.879) scale(16.9052)">
<stop offset="0.520833" stop-color="#767676" stop-opacity="0"/>
<stop offset="1" stop-color="#B6761C"/>
</radialGradient>
<radialGradient id="paint3_radial_532_2457" cx="0" cy="0" r="1" gradientUnits="userSpaceOnUse" gradientTransform="translate(347.645 208.288) rotate(46.9068) scale(17.864)">
<stop offset="0.598958" stop-color="#C9C2C2" stop-opacity="0"/>
<stop offset="1" stop-color="#898989"/>
</radialGradient>
<linearGradient id="paint4_linear_532_2457" x1="337.556" y1="200.972" x2="360.128" y2="222.174" gradientUnits="userSpaceOnUse">
<stop stop-color="#C5C5C5"/>
<stop offset="1" stop-color="#B1B1B1"/>
</linearGradient>
<radialGradient id="paint5_radial_532_2457" cx="0" cy="0" r="1" gradientUnits="userSpaceOnUse" gradientTransform="translate(350.548 213.704) rotate(-132.879) scale(16.9052)">
<stop offset="0.520833" stop-color="#767676" stop-opacity="0"/>
<stop offset="1" stop-color="#B6761C"/>
</radialGradient>
<radialGradient id="paint6_radial_532_2457" cx="0" cy="0" r="1" gradientUnits="userSpaceOnUse" gradientTransform="translate(132.359 14.4578) rotate(46.9068) scale(17.864)">
<stop offset="0.598958" stop-color="#C9C2C2" stop-opacity="0"/>
<stop offset="1" stop-color="#898989"/>
</radialGradient>
<linearGradient id="paint7_linear_532_2457" x1="122.822" y1="7.18976" x2="145.394" y2="28.3919" gradientUnits="userSpaceOnUse">
<stop stop-color="#C5C5C5"/>
<stop offset="1" stop-color="#B1B1B1"/>
</linearGradient>
<radialGradient id="paint8_radial_532_2457" cx="0" cy="0" r="1" gradientUnits="userSpaceOnUse" gradientTransform="translate(136.441 19.2865) rotate(-132.879) scale(16.9052)">
<stop offset="0.520833" stop-color="#767676" stop-opacity="0"/>
<stop offset="1" stop-color="#B6761C"/>
</radialGradient>
<radialGradient id="paint9_radial_532_2457" cx="0" cy="0" r="1" gradientUnits="userSpaceOnUse" gradientTransform="translate(202.031 230.455) rotate(46.9068) scale(17.864)">
<stop offset="0.598958" stop-color="#C9C2C2" stop-opacity="0"/>
<stop offset="1" stop-color="#898989"/>
</radialGradient>
<linearGradient id="paint10_linear_532_2457" x1="192.494" y1="223.187" x2="215.066" y2="244.389" gradientUnits="userSpaceOnUse">
<stop stop-color="#C5C5C5"/>
<stop offset="1" stop-color="#B1B1B1"/>
</linearGradient>
<radialGradient id="paint11_radial_532_2457" cx="0" cy="0" r="1" gradientUnits="userSpaceOnUse" gradientTransform="translate(206.113 235.284) rotate(-132.879) scale(16.9052)">
<stop offset="0.520833" stop-color="#767676" stop-opacity="0"/>
<stop offset="1" stop-color="#B6761C"/>
</radialGradient>
<radialGradient id="paint12_radial_532_2457" cx="0" cy="0" r="1" gradientUnits="userSpaceOnUse" gradientTransform="translate(231.031 119.455) rotate(46.9068) scale(17.864)">
<stop offset="0.598958" stop-color="#C9C2C2" stop-opacity="0"/>
<stop offset="1" stop-color="#898989"/>
</radialGradient>
<linearGradient id="paint13_linear_532_2457" x1="221.494" y1="112.187" x2="244.066" y2="133.39" gradientUnits="userSpaceOnUse">
<stop stop-color="#C5C5C5"/>
<stop offset="1" stop-color="#B1B1B1"/>
</linearGradient>
<radialGradient id="paint14_radial_532_2457" cx="0" cy="0" r="1" gradientUnits="userSpaceOnUse" gradientTransform="translate(235.113 124.284) rotate(-132.879) scale(16.9052)">
<stop offset="0.520833" stop-color="#767676" stop-opacity="0"/>
<stop offset="1" stop-color="#B6761C"/>
</radialGradient>
<radialGradient id="paint15_radial_532_2457" cx="0" cy="0" r="1" gradientUnits="userSpaceOnUse" gradientTransform="translate(117.873 141.25) rotate(46.9068) scale(17.864)">
<stop offset="0.598958" stop-color="#C9C2C2" stop-opacity="0"/>
<stop offset="1" stop-color="#898989"/>
</radialGradient>
<linearGradient id="paint16_linear_532_2457" x1="107.967" y1="133.701" x2="130.539" y2="154.903" gradientUnits="userSpaceOnUse">
<stop stop-color="#C5C5C5"/>
<stop offset="1" stop-color="#B1B1B1"/>
</linearGradient>
<radialGradient id="paint17_radial_532_2457" cx="0" cy="0" r="1" gradientUnits="userSpaceOnUse" gradientTransform="translate(120.846 145.972) rotate(-132.879) scale(16.9052)">
<stop offset="0.520833" stop-color="#767676" stop-opacity="0"/>
<stop offset="1" stop-color="#B6761C"/>
</radialGradient>
<radialGradient id="paint18_radial_532_2457" cx="0" cy="0" r="1" gradientUnits="userSpaceOnUse" gradientTransform="translate(97.9729 236.398) rotate(46.9068) scale(17.864)">
<stop offset="0.598958" stop-color="#C9C2C2" stop-opacity="0"/>
<stop offset="1" stop-color="#898989"/>
</radialGradient>
<linearGradient id="paint19_linear_532_2457" x1="88.0663" y1="228.849" x2="110.638" y2="250.051" gradientUnits="userSpaceOnUse">
<stop stop-color="#C5C5C5"/>
<stop offset="1" stop-color="#B1B1B1"/>
</linearGradient>
<radialGradient id="paint20_radial_532_2457" cx="0" cy="0" r="1" gradientUnits="userSpaceOnUse" gradientTransform="translate(100.946 241.12) rotate(-132.879) scale(16.9052)">
<stop offset="0.520833" stop-color="#767676" stop-opacity="0"/>
<stop offset="1" stop-color="#B6761C"/>
</radialGradient>
<radialGradient id="paint21_radial_532_2457" cx="0" cy="0" r="1" gradientUnits="userSpaceOnUse" gradientTransform="translate(265.973 15.3989) rotate(46.9068) scale(17.864)">
<stop offset="0.598958" stop-color="#C9C2C2" stop-opacity="0"/>
<stop offset="1" stop-color="#898989"/>
</radialGradient>
<linearGradient id="paint22_linear_532_2457" x1="256.066" y1="7.85019" x2="278.638" y2="29.0524" gradientUnits="userSpaceOnUse">
<stop stop-color="#C5C5C5"/>
<stop offset="1" stop-color="#B1B1B1"/>
</linearGradient>
<radialGradient id="paint23_radial_532_2457" cx="0" cy="0" r="1" gradientUnits="userSpaceOnUse" gradientTransform="translate(268.946 20.1215) rotate(-132.879) scale(16.9052)">
<stop offset="0.520833" stop-color="#767676" stop-opacity="0"/>
<stop offset="1" stop-color="#B6761C"/>
</radialGradient>
<radialGradient id="paint24_radial_532_2457" cx="0" cy="0" r="1" gradientUnits="userSpaceOnUse" gradientTransform="translate(358.973 115.398) rotate(46.9068) scale(17.864)">
<stop offset="0.598958" stop-color="#C9C2C2" stop-opacity="0"/>
<stop offset="1" stop-color="#898989"/>
</radialGradient>
<linearGradient id="paint25_linear_532_2457" x1="349.066" y1="107.849" x2="371.638" y2="129.051" gradientUnits="userSpaceOnUse">
<stop stop-color="#C5C5C5"/>
<stop offset="1" stop-color="#B1B1B1"/>
</linearGradient>
<radialGradient id="paint26_radial_532_2457" cx="0" cy="0" r="1" gradientUnits="userSpaceOnUse" gradientTransform="translate(361.946 120.121) rotate(-132.879) scale(16.9052)">
<stop offset="0.520833" stop-color="#767676" stop-opacity="0"/>
<stop offset="1" stop-color="#B6761C"/>
</radialGradient>
<radialGradient id="paint27_radial_532_2457" cx="0" cy="0" r="1" gradientUnits="userSpaceOnUse" gradientTransform="translate(172.249 83.8848) rotate(46.9068) scale(17.864)">
<stop offset="0.598958" stop-color="#C9C2C2" stop-opacity="0"/>
<stop offset="1" stop-color="#898989"/>
</radialGradient>
<linearGradient id="paint28_linear_532_2457" x1="162.187" y1="76.4742" x2="184.759" y2="97.6764" gradientUnits="userSpaceOnUse">
<stop stop-color="#C5C5C5"/>
<stop offset="1" stop-color="#B1B1B1"/>
</linearGradient>
<radialGradient id="paint29_radial_532_2457" cx="0" cy="0" r="1" gradientUnits="userSpaceOnUse" gradientTransform="translate(175.093 89.0727) rotate(-132.879) scale(16.9052)">
<stop offset="0.520833" stop-color="#767676" stop-opacity="0"/>
<stop offset="1" stop-color="#B6761C"/>
</radialGradient>
<radialGradient id="paint30_radial_532_2457" cx="0" cy="0" r="1" gradientUnits="userSpaceOnUse" gradientTransform="translate(24.8569 76.9437) rotate(46.9068) scale(17.864)">
<stop offset="0.598958" stop-color="#C9C2C2" stop-opacity="0"/>
<stop offset="1" stop-color="#898989"/>
</radialGradient>
<linearGradient id="paint31_linear_532_2457" x1="15.2607" y1="69.8411" x2="37.8328" y2="91.0433" gradientUnits="userSpaceOnUse">
<stop stop-color="#C5C5C5"/>
<stop offset="1" stop-color="#B1B1B1"/>
</linearGradient>
<radialGradient id="paint32_radial_532_2457" cx="0" cy="0" r="1" gradientUnits="userSpaceOnUse" gradientTransform="translate(29.0312 82.1858) rotate(-132.879) scale(16.9052)">
<stop offset="0.520833" stop-color="#767676" stop-opacity="0"/>
<stop offset="1" stop-color="#B6761C"/>
</radialGradient>
<radialGradient id="paint33_radial_532_2457" cx="0" cy="0" r="1" gradientUnits="userSpaceOnUse" gradientTransform="translate(234.857 176.944) rotate(46.9068) scale(17.864)">
<stop offset="0.598958" stop-color="#C9C2C2" stop-opacity="0"/>
<stop offset="1" stop-color="#898989"/>
</radialGradient>
<linearGradient id="paint34_linear_532_2457" x1="225.261" y1="169.841" x2="247.833" y2="191.043" gradientUnits="userSpaceOnUse">
<stop stop-color="#C5C5C5"/>
<stop offset="1" stop-color="#B1B1B1"/>
</linearGradient>
<radialGradient id="paint35_radial_532_2457" cx="0" cy="0" r="1" gradientUnits="userSpaceOnUse" gradientTransform="translate(239.031 182.186) rotate(-132.879) scale(16.9052)">
<stop offset="0.520833" stop-color="#767676" stop-opacity="0"/>
<stop offset="1" stop-color="#B6761C"/>
</radialGradient>
<radialGradient id="paint36_radial_532_2457" cx="0" cy="0" r="1" gradientUnits="userSpaceOnUse" gradientTransform="translate(18.8569 218.944) rotate(46.9068) scale(17.864)">
<stop offset="0.598958" stop-color="#C9C2C2" stop-opacity="0"/>
<stop offset="1" stop-color="#898989"/>
</radialGradient>
<linearGradient id="paint37_linear_532_2457" x1="9.26072" y1="211.841" x2="31.8328" y2="233.043" gradientUnits="userSpaceOnUse">
<stop stop-color="#C5C5C5"/>
<stop offset="1" stop-color="#B1B1B1"/>
</linearGradient>
<radialGradient id="paint38_radial_532_2457" cx="0" cy="0" r="1" gradientUnits="userSpaceOnUse" gradientTransform="translate(23.0312 224.186) rotate(-132.879) scale(16.9052)">
<stop offset="0.520833" stop-color="#767676" stop-opacity="0"/>
<stop offset="1" stop-color="#B6761C"/>
</radialGradient>
<radialGradient id="paint39_radial_532_2457" cx="0" cy="0" r="1" gradientUnits="userSpaceOnUse" gradientTransform="translate(145.857 208.944) rotate(46.9068) scale(17.864)">
<stop offset="0.598958" stop-color="#C9C2C2" stop-opacity="0"/>
<stop offset="1" stop-color="#898989"/>
</radialGradient>
<linearGradient id="paint40_linear_532_2457" x1="136.261" y1="201.842" x2="158.833" y2="223.044" gradientUnits="userSpaceOnUse">
<stop stop-color="#C5C5C5"/>
<stop offset="1" stop-color="#B1B1B1"/>
</linearGradient>
<radialGradient id="paint41_radial_532_2457" cx="0" cy="0" r="1" gradientUnits="userSpaceOnUse" gradientTransform="translate(150.031 214.187) rotate(-132.879) scale(16.9052)">
<stop offset="0.520833" stop-color="#767676" stop-opacity="0"/>
<stop offset="1" stop-color="#B6761C"/>
</radialGradient>
<radialGradient id="paint42_radial_532_2457" cx="0" cy="0" r="1" gradientUnits="userSpaceOnUse" gradientTransform="translate(20.1896 137.744) rotate(46.9068) scale(17.864)">
<stop offset="0.598958" stop-color="#C9C2C2" stop-opacity="0"/>
<stop offset="1" stop-color="#898989"/>
</radialGradient>
<linearGradient id="paint43_linear_532_2457" x1="10.5348" y1="130.221" x2="33.1069" y2="151.423" gradientUnits="userSpaceOnUse">
<stop stop-color="#C5C5C5"/>
<stop offset="1" stop-color="#B1B1B1"/>
</linearGradient>
<radialGradient id="paint44_radial_532_2457" cx="0" cy="0" r="1" gradientUnits="userSpaceOnUse" gradientTransform="translate(23.7055 142.212) rotate(-132.879) scale(16.9052)">
<stop offset="0.520833" stop-color="#767676" stop-opacity="0"/>
<stop offset="1" stop-color="#B6761C"/>
</radialGradient>
<radialGradient id="paint45_radial_532_2457" cx="0" cy="0" r="1" gradientUnits="userSpaceOnUse" gradientTransform="translate(289.342 193.557) rotate(46.9068) scale(17.864)">
<stop offset="0.598958" stop-color="#C9C2C2" stop-opacity="0"/>
<stop offset="1" stop-color="#898989"/>
</radialGradient>
<linearGradient id="paint46_linear_532_2457" x1="279.687" y1="186.034" x2="302.259" y2="207.236" gradientUnits="userSpaceOnUse">
<stop stop-color="#C5C5C5"/>
<stop offset="1" stop-color="#B1B1B1"/>
</linearGradient>
<radialGradient id="paint47_radial_532_2457" cx="0" cy="0" r="1" gradientUnits="userSpaceOnUse" gradientTransform="translate(292.858 198.025) rotate(-132.879) scale(16.9052)">
<stop offset="0.520833" stop-color="#767676" stop-opacity="0"/>
<stop offset="1" stop-color="#B6761C"/>
</radialGradient>
<radialGradient id="paint48_radial_532_2457" cx="0" cy="0" r="1" gradientUnits="userSpaceOnUse" gradientTransform="translate(265.342 79.5563) rotate(46.9068) scale(17.864)">
<stop offset="0.598958" stop-color="#C9C2C2" stop-opacity="0"/>
<stop offset="1" stop-color="#898989"/>
</radialGradient>
<linearGradient id="paint49_linear_532_2457" x1="255.687" y1="72.0331" x2="278.259" y2="93.2353" gradientUnits="userSpaceOnUse">
<stop stop-color="#C5C5C5"/>
<stop offset="1" stop-color="#B1B1B1"/>
</linearGradient>
<radialGradient id="paint50_radial_532_2457" cx="0" cy="0" r="1" gradientUnits="userSpaceOnUse" gradientTransform="translate(268.858 84.0246) rotate(-132.879) scale(16.9052)">
<stop offset="0.520833" stop-color="#767676" stop-opacity="0"/>
<stop offset="1" stop-color="#B6761C"/>
</radialGradient>
<radialGradient id="paint51_radial_532_2457" cx="0" cy="0" r="1" gradientUnits="userSpaceOnUse" gradientTransform="translate(109.158 62.4616) rotate(46.9068) scale(17.864)">
<stop offset="0.598958" stop-color="#C9C2C2" stop-opacity="0"/>
<stop offset="1" stop-color="#898989"/>
</radialGradient>
<linearGradient id="paint52_linear_532_2457" x1="99.3329" y1="54.8948" x2="121.905" y2="76.097" gradientUnits="userSpaceOnUse">
<stop stop-color="#C5C5C5"/>
<stop offset="1" stop-color="#B1B1B1"/>
</linearGradient>
<radialGradient id="paint53_radial_532_2457" cx="0" cy="0" r="1" gradientUnits="userSpaceOnUse" gradientTransform="translate(112.265 67.0645) rotate(-132.879) scale(16.9052)">
<stop offset="0.520833" stop-color="#767676" stop-opacity="0"/>
<stop offset="1" stop-color="#B6761C"/>
</radialGradient>
<radialGradient id="paint54_radial_532_2457" cx="0" cy="0" r="1" gradientUnits="userSpaceOnUse" gradientTransform="translate(267.472 241.143) rotate(46.9068) scale(17.864)">
<stop offset="0.598958" stop-color="#C9C2C2" stop-opacity="0"/>
<stop offset="1" stop-color="#898989"/>
</radialGradient>
<linearGradient id="paint55_linear_532_2457" x1="257.647" y1="233.576" x2="280.219" y2="254.779" gradientUnits="userSpaceOnUse">
<stop stop-color="#C5C5C5"/>
<stop offset="1" stop-color="#B1B1B1"/>
</linearGradient>
<radialGradient id="paint56_radial_532_2457" cx="0" cy="0" r="1" gradientUnits="userSpaceOnUse" gradientTransform="translate(270.58 245.746) rotate(-132.879) scale(16.9052)">
<stop offset="0.520833" stop-color="#767676" stop-opacity="0"/>
<stop offset="1" stop-color="#B6761C"/>
</radialGradient>
<radialGradient id="paint57_radial_532_2457" cx="0" cy="0" r="1" gradientUnits="userSpaceOnUse" gradientTransform="translate(303.472 144.143) rotate(46.9068) scale(17.864)">
<stop offset="0.598958" stop-color="#C9C2C2" stop-opacity="0"/>
<stop offset="1" stop-color="#898989"/>
</radialGradient>
<linearGradient id="paint58_linear_532_2457" x1="293.647" y1="136.576" x2="316.219" y2="157.779" gradientUnits="userSpaceOnUse">
<stop stop-color="#C5C5C5"/>
<stop offset="1" stop-color="#B1B1B1"/>
</linearGradient>
<radialGradient id="paint59_radial_532_2457" cx="0" cy="0" r="1" gradientUnits="userSpaceOnUse" gradientTransform="translate(306.58 148.746) rotate(-132.879) scale(16.9052)">
<stop offset="0.520833" stop-color="#767676" stop-opacity="0"/>
<stop offset="1" stop-color="#B6761C"/>
</radialGradient>
<radialGradient id="paint60_radial_532_2457" cx="0" cy="0" r="1" gradientUnits="userSpaceOnUse" gradientTransform="translate(67.2732 20.8797) rotate(46.9068) scale(17.864)">
<stop offset="0.598958" stop-color="#C9C2C2" stop-opacity="0"/>
<stop offset="1" stop-color="#898989"/>
</radialGradient>
<linearGradient id="paint61_linear_532_2457" x1="57.2109" y1="13.7044" x2="79.7829" y2="34.9066" gradientUnits="userSpaceOnUse">
<stop stop-color="#C5C5C5"/>
<stop offset="1" stop-color="#B1B1B1"/>
</linearGradient>
<radialGradient id="paint62_radial_532_2457" cx="0" cy="0" r="1" gradientUnits="userSpaceOnUse" gradientTransform="translate(70.3892 26.5516) rotate(-132.879) scale(16.9052)">
<stop offset="0.520833" stop-color="#767676" stop-opacity="0"/>
<stop offset="1" stop-color="#B6761C"/>
</radialGradient>
<radialGradient id="paint63_radial_532_2457" cx="0" cy="0" r="1" gradientUnits="userSpaceOnUse" gradientTransform="translate(63.2732 178.88) rotate(46.9068) scale(17.864)">
<stop offset="0.598958" stop-color="#C9C2C2" stop-opacity="0"/>
<stop offset="1" stop-color="#898989"/>
</radialGradient>
<linearGradient id="paint64_linear_532_2457" x1="53.2109" y1="171.704" x2="75.7829" y2="192.907" gradientUnits="userSpaceOnUse">
<stop stop-color="#C5C5C5"/>
<stop offset="1" stop-color="#B1B1B1"/>
</linearGradient>
<radialGradient id="paint65_radial_532_2457" cx="0" cy="0" r="1" gradientUnits="userSpaceOnUse" gradientTransform="translate(66.3892 184.552) rotate(-132.879) scale(16.9052)">
<stop offset="0.520833" stop-color="#767676" stop-opacity="0"/>
<stop offset="1" stop-color="#B6761C"/>
</radialGradient>
<radialGradient id="paint66_radial_532_2457" cx="0" cy="0" r="1" gradientUnits="userSpaceOnUse" gradientTransform="translate(210.273 34.8805) rotate(46.9068) scale(17.864)">
<stop offset="0.598958" stop-color="#C9C2C2" stop-opacity="0"/>
<stop offset="1" stop-color="#898989"/>
</radialGradient>
<linearGradient id="paint67_linear_532_2457" x1="200.211" y1="27.7051" x2="222.783" y2="48.9073" gradientUnits="userSpaceOnUse">
<stop stop-color="#C5C5C5"/>
<stop offset="1" stop-color="#B1B1B1"/>
</linearGradient>
<radialGradient id="paint68_radial_532_2457" cx="0" cy="0" r="1" gradientUnits="userSpaceOnUse" gradientTransform="translate(213.389 40.5523) rotate(-132.879) scale(16.9052)">
<stop offset="0.520833" stop-color="#767676" stop-opacity="0"/>
<stop offset="1" stop-color="#B6761C"/>
</radialGradient>
<radialGradient id="paint69_radial_532_2457" cx="0" cy="0" r="1" gradientUnits="userSpaceOnUse" gradientTransform="translate(175.873 155.465) rotate(46.9068) scale(17.864)">
<stop offset="0.598958" stop-color="#C9C2C2" stop-opacity="0"/>
<stop offset="1" stop-color="#898989"/>
</radialGradient>
<linearGradient id="paint70_linear_532_2457" x1="166.17" y1="148.441" x2="188.742" y2="169.644" gradientUnits="userSpaceOnUse">
<stop stop-color="#C5C5C5"/>
<stop offset="1" stop-color="#B1B1B1"/>
</linearGradient>
<radialGradient id="paint71_radial_532_2457" cx="0" cy="0" r="1" gradientUnits="userSpaceOnUse" gradientTransform="translate(179.918 161.003) rotate(-132.879) scale(16.9052)">
<stop offset="0.520833" stop-color="#767676" stop-opacity="0"/>
<stop offset="1" stop-color="#B6761C"/>
</radialGradient>
<radialGradient id="paint72_radial_532_2457" cx="0" cy="0" r="1" gradientUnits="userSpaceOnUse" gradientTransform="translate(320.084 64.7536) rotate(46.9068) scale(17.864)">
<stop offset="0.598958" stop-color="#C9C2C2" stop-opacity="0"/>
<stop offset="1" stop-color="#898989"/>
</radialGradient>
<linearGradient id="paint73_linear_532_2457" x1="310.381" y1="57.7301" x2="332.953" y2="78.9323" gradientUnits="userSpaceOnUse">
<stop stop-color="#C5C5C5"/>
<stop offset="1" stop-color="#B1B1B1"/>
</linearGradient>
<radialGradient id="paint74_radial_532_2457" cx="0" cy="0" r="1" gradientUnits="userSpaceOnUse" gradientTransform="translate(324.128 70.2922) rotate(-132.879) scale(16.9052)">
<stop offset="0.520833" stop-color="#767676" stop-opacity="0"/>
<stop offset="1" stop-color="#B6761C"/>
</radialGradient>
</defs>
</svg>
